…
``` r
library(future)
plan(multisession, workers = 2)

tourism_hts |>  
  model(base = ETS(Trips)) |>  
  reconcile(ols = min_trace(base, method = "ols"),
            icomb = icomb(base, train_size = 75))  |>  
  forecast(h = "3 years") 
#> # A fable: 1,620 x 6 [1Q]
#> # Key:     State, Purpose, .model [135]
#> Loading required namespace: crayon
#>    State  Purpose  .model Quarter
#>    <chr*> <chr*>   <chr>    <qtr>
#>  1 ACT    Business base   2018 Q1
#>  2 ACT    Business base   2018 Q2
#>  3 ACT    Business base   2018 Q3
#>  4 ACT    Business base   2018 Q4
#>  5 ACT    Business base   2019 Q1
#>  6 ACT    Business base   2019 Q2
#>  7 ACT    Business base   2019 Q3
#>  8 ACT    Business base   2019 Q4
#>  9 ACT    Business base   2020 Q1
#> 10 ACT    Business base   2020 Q2
#> # ℹ 1,610 more rows
#> # ℹ 2 more variables: Trips <dist>, .mean <dbl>
…
