…
tourism_gts <- tourism |>
  aggregate_key(State * Purpose,
                Trips = sum(Trips))

fit <- tourism_gts |>
  model(base = ETS(Trips)) |>
  reconcile(ols = min_trace(base, method = "ols"),
            icomb = icomb(base, train_size = 75))
fit |>
  forecast(bootstrap = TRUE, times = 1000) |>
  hilo(level = c(80, 95))
#> # A tsibble: 1,080 x 8 [1Q]
#> # Key:       State, Purpose, .model [135]
#> Loading required namespace: crayon
#>    State  Purpose  .model Quarter        Trips .mean
#>    <chr*> <chr*>   <chr>    <qtr>       <dist> <dbl>
#>  1 ACT    Business base   2018 Q1 sample[1000]  145.
#>  2 ACT    Business base   2018 Q2 sample[1000]  203.
#>  3 ACT    Business base   2018 Q3 sample[1000]  197.
#>  4 ACT    Business base   2018 Q4 sample[1000]  191.
#>  5 ACT    Business base   2019 Q1 sample[1000]  142.
#>  6 ACT    Business base   2019 Q2 sample[1000]  204.
#>  7 ACT    Business base   2019 Q3 sample[1000]  197.
#>  8 ACT    Business base   2019 Q4 sample[1000]  189.
#>  9 ACT    Business ols    2018 Q1 sample[1000]  173.
#> 10 ACT    Business ols    2018 Q2 sample[1000]  237.
#> # ℹ 1,070 more rows
#> # ℹ 2 more variables: `80%` <hilo>, `95%` <hilo>
```
