Information combination reconciliation — icomb • icomb
…
tourism_hts <- tourism |>
  aggregate_key(State,
                Trips = sum(Trips))

fit <- tourism_hts |>
  model(base = ETS(Trips)) |>
  reconcile(ols = min_trace(base, method = "ols"),
            icomb = icomb(base, train_size = 75))

fit |>
  forecast(h = "3 years")
#> # A fable: 324 x 5 [1Q]
#> # Key:     State, .model [27]
#>    State  .model Quarter
#>    <chr*> <chr>    <qtr>
#>  1 ACT    base   2018 Q1
#>  2 ACT    base   2018 Q2
#>  3 ACT    base   2018 Q3
#>  4 ACT    base   2018 Q4
#>  5 ACT    base   2019 Q1
#>  6 ACT    base   2019 Q2
#>  7 ACT    base   2019 Q3
#>  8 ACT    base   2019 Q4
#>  9 ACT    base   2020 Q1
#> 10 ACT    base   2020 Q2
#> # ℹ 314 more rows
#> # ℹ 2 more variables: Trips <dist>, .mean <dbl>
…
tourism_gts |>
  model(base = ETS(Trips)) |>
  reconcile(ols = min_trace(base, method = "ols"),
            icomb = icomb(base, train_size = 75)) |>
  forecast(h = "3 years")
#> Warning: There were 4 warnings in `mutate()`.
#> The first warning was:
#> ℹ In argument: `icomb = icomb(base, train_size = 75)`.
#> Caused by warning in `.resolve_control()`:
#> ! Passing 'thresh' to glmnet() is deprecated. Use control = list(thresh = ...) instead.
#> ℹ Run `dplyr::last_dplyr_warnings()` to see the 3 remaining warnings.
#> # A fable: 1,620 x 6 [1Q]
#> # Key:     State, Purpose, .model [135]
#>    State  Purpose  .model Quarter
#>    <chr*> <chr*>   <chr>    <qtr>
#>  1 ACT    Business base   2018 Q1
#>  2 ACT    Business base   2018 Q2
#>  3 ACT    Business base   2018 Q3
#>  4 ACT    Business base   2018 Q4
#>  5 ACT    Business base   2019 Q1
#>  6 ACT    Business base   2019 Q2
#>  7 ACT    Business base   2019 Q3
#>  8 ACT    Business base   2019 Q4
#>  9 ACT    Business base   2020 Q1
#> 10 ACT    Business base   2020 Q2
#> # ℹ 1,610 more rows
#> # ℹ 2 more variables: Trips <dist>, .mean <dbl>
…
